{
    "name": "StudentImport",
    "alias": "studentimport",
    "description": "",
    "keywords": [],
    "active": 1,
    "order": 0,
    "providers": [
        "Modules\\StudentImport\\Providers\\StudentImportServiceProvider"
    ],
    "aliases": {},
    "files": [
        "start.php"
    ],
    "requires": []
}
